************
************
************
************
************
**22222222**
*3222222223*
**31111113**
**22222222**
**44444444**
**44444444**
**31111113**
**22222222**
**22222222**
*3333333333*
*1111111111*
**13333331**
***133331***
****1111****
*****11*****
************